Trabalho ASN Regressão Linear
…
cor(Bodyfat$Density,Bodyfat$bodyfat)

## [1] -0.9877824

Como a correlação entre elas é inversamente alta. E nosso target(y) é
bodyfat, iremos eliminar a variável Density do modelo.

Bodyfat <- Bodyfat %>%
  select(-Density)

Bodyfat

## # A tibble: 252 × 14
##    bodyfat   Age Weight Height  Neck Chest Abdomen   Hip Thigh  Knee Ankle
##      <dbl> <dbl>  <dbl>  <dbl> <dbl> <dbl>   <dbl> <dbl> <dbl> <dbl> <dbl>
##  1    12.3    23   154.   67.8  36.2  93.1    85.2  94.5  59    37.3  21.9
##  2     6.1    22   173.   72.2  38.5  93.6    83    98.7  58.7  37.3  23.4
##  3    25.3    22   154    66.2  34    95.8    87.9  99.2  59.6  38.9  24  
##  4    10.4    26   185.   72.2  37.4 102.     86.4 101.   60.1  37.3  22.8
##  5    28.7    24   184.   71.2  34.4  97.3   100   102.   63.2  42.2  24  
##  6    20.9    24   210.   74.8  39   104.     94.4 108.   66    42    25.6
##  7    19.2    26   181    69.8  36.4 105.     90.7 100.   58.4  38.3  22.9
##  8    12.4    25   176    72.5  37.8  99.6    88.5  97.1  60    39.4  23.2
##  9     4.1    25   191    74    38.1 101.     82.5  99.9  62.9  38.3  23.8
## 10    11.7    23   198.   73.5  42.1  99.6    88.6 104.   63.1  41.7  25  
## # … with 242 more rows, and 3 more variables: Biceps <dbl>, Forearm <dbl>,
## #   Wrist <dbl>
…
Considerando a correlação maior que 0.7 entre as variáveis, irei
excluir as seguinte variáveis: ‘IMC’, ‘Chest’, ‘Hip’, ‘Weight’, ‘Thigh’,
‘Knee’ e ‘Neck’

Bodyfat <- Bodyfat %>%
  select(-Chest,-Hip,-Weight,-Thigh,-Knee,-Neck)

Bodyfat

## # A tibble: 250 × 8
##    bodyfat   Age Height Abdomen Ankle Biceps Forearm Wrist
##      <dbl> <dbl>  <dbl>   <dbl> <dbl>  <dbl>   <dbl> <dbl>
##  1    12.3    23   1.69    85.2  21.9   32      27.4  17.1
##  2     6.1    22   1.81    83    23.4   30.5    28.9  18.2
##  3    25.3    22   1.66    87.9  24     28.8    25.2  16.6
##  4    10.4    26   1.81    86.4  22.8   32.4    29.4  18.2
##  5    28.7    24   1.78   100    24     32.2    27.7  17.7
##  6    20.9    24   1.87    94.4  25.6   35.7    30.6  18.8
##  7    19.2    26   1.74    90.7  22.9   31.9    27.8  17.7
##  8    12.4    25   1.81    88.5  23.2   30.5    29    18.8
##  9     4.1    25   1.85    82.5  23.8   35.9    31.1  18.2
## 10    11.7    23   1.84    88.6  25     35.6    30    19.2
## # … with 240 more rows
…
Deixa somente as variáveis abaixo: Age + Height + Abdomen + Forearm +
Wrist

Bodyfat <- Bodyfat %>%
  select(-Ankle,-Biceps)

Bodyfat

## # A tibble: 250 × 6
##    bodyfat   Age Height Abdomen Forearm Wrist
##      <dbl> <dbl>  <dbl>   <dbl>   <dbl> <dbl>
##  1    12.3    23   1.69    85.2    27.4  17.1
##  2     6.1    22   1.81    83      28.9  18.2
##  3    25.3    22   1.66    87.9    25.2  16.6
##  4    10.4    26   1.81    86.4    29.4  18.2
##  5    28.7    24   1.78   100      27.7  17.7
##  6    20.9    24   1.87    94.4    30.6  18.8
##  7    19.2    26   1.74    90.7    27.8  17.7
##  8    12.4    25   1.81    88.5    29    18.8
##  9     4.1    25   1.85    82.5    31.1  18.2
## 10    11.7    23   1.84    88.6    30    19.2
## # … with 240 more rows
…
